\relax 
\citation{zeo}
\citation{sleeptracker}
\citation{alqassim_sleep_2012}
\citation{Otto:2006vq}
\citation{Lo:2005uv}
\citation{Liang:ix}
\@writefile{toc}{\contentsline {section}{\numberline {I}Introduction}{1}}
\@writefile{toc}{\contentsline {section}{\numberline {II}Fall detection}{1}}
\citation{Chen:2005bp}
\citation{Bourke:2007cg}
\citation{Lorincz:2009wm}
\citation{Anonymous:PIFst6x8}
\citation{Lan:2009us}
\citation{Bourke:2008ed}
\citation{Salarian:2004ioa}
\citation{Salarian:2004ioa}
\@writefile{toc}{\contentsline {section}{\numberline {III}Gait Analyzing}{2}}
\citation{Morris:2002ui}
\citation{Shu:2010ho}
\citation{Moore:2007ee}
\citation{Atallah:2010uc}
\citation{Mantyjarvi:2005vf}
\citation{Frank:2010uk}
\citation{Pantelopoulos:2010be}
\@writefile{lof}{\contentsline {figure}{\numberline {1}{\ignorespaces Gait parameters}}{3}}
\newlabel{fig:GaitParameters}{{1}{3}}
\@writefile{toc}{\contentsline {section}{\numberline {IV}Activity quantification}{3}}
\citation{MSSE:2005bc}
\citation{Tapia:2007jo}
\citation{STRATH:2002wa}
\citation{_electrocardiography_2014}
\citation{_electrocardiography_2014}
\citation{li_ecg_2008}
\citation{langley_algorithm_2011}
\citation{leijdekkers_feasibility_2009}
\citation{miwa_development_2009}
\citation{villalba_new_2006}
\citation{zulkifli_xbee_2012}
\citation{kappiarukudil_real-time_2010}
\citation{sun_pear:_2011}
\citation{cheng_real-time}
\@writefile{toc}{\contentsline {section}{\numberline {V}Heart State Sensing}{4}}
\@writefile{toc}{\contentsline {subsection}{\numberline {\unhbox \voidb@x \hbox {V-A}}Heart Signals}{4}}
\@writefile{toc}{\contentsline {subsection}{\numberline {\unhbox \voidb@x \hbox {V-B}}Ubiquitous Heart Sensing Approaches}{4}}
\citation{alivenet}
\citation{_lifeshirt_????}
\citation{equivital}
\citation{bodymedia}
\citation{chen_livenet:_2008}
\citation{codeblue}
\citation{choe_opportunities_2010}
\citation{Lorincz:2009wm}
\citation{Lan:2009us}
\citation{Chen:2005bp}
\citation{Bourke:2007cg}
\citation{Bourke:2008ed}
\citation{Lorincz:2009wm}
\citation{Lan:2009us}
\citation{Chen:2005bp}
\citation{Bourke:2007cg}
\citation{Salarian:2004ioa}
\citation{Shu:2010ho}
\citation{Morris:2002ui}
\citation{Salarian:2004ioa}
\citation{Shu:2010ho}
\citation{Moore:2007ee}
\citation{Atallah:2010uc}
\citation{Pantelopoulos:2010be}
\citation{MSSE:2005bc}
\citation{Tapia:2007jo}
\citation{STRATH:2002wa}
\citation{Tapia:2007jo}
\citation{MSSE:2005bc}
\citation{leijdekkers_feasibility_2009}
\citation{miwa_development_2009}
\citation{villalba_new_2006}
\citation{zulkifli_xbee_2012}
\citation{leijdekkers_feasibility_2009}
\citation{li_ecg_2008}
\citation{langley_algorithm_2011}
\citation{miwa_development_2009}
\citation{sun_pear:_2011}
\citation{villalba_new_2006}
\citation{cheng_real-time}
\citation{_practice_1997}
\citation{sleepcycle}
\citation{sleepasandroid}
\citation{zeo}
\citation{fitbit}
\citation{sleeptracker}
\citation{gaddam_determination_2010}
\citation{hao_isleep:_2013}
\citation{ondrej_krejcar_use_2011}
\citation{fitbit}
\citation{sleeptracker}
\citation{sleepcycle}
\citation{sleepasandroid}
\citation{gaddam_determination_2010}
\citation{hao_isleep:_2013}
\citation{ondrej_krejcar_use_2011}
\citation{alqassim_sleep_2012}
\citation{_practice_1997}
\citation{ancoli-israel_role_2003}
\citation{fitbit}
\citation{sleeptracker}
\citation{zeo}
\citation{sleepcycle}
\citation{sleepasandroid}
\citation{sleepasandroid}
\citation{sleepcycle}
\citation{gaddam_determination_2010}
\citation{hao_isleep:_2013}
\citation{buysse_pittsburgh_1989}
\citation{ondrej_krejcar_use_2011}
\citation{alqassim_sleep_2012}
\@writefile{toc}{\contentsline {subsection}{\numberline {\unhbox \voidb@x \hbox {V-C}}Heart Sensing Projects and Products}{5}}
\@writefile{toc}{\contentsline {section}{\numberline {VI}Sleep Sensing}{5}}
\@writefile{toc}{\contentsline {subsection}{\numberline {\unhbox \voidb@x \hbox {VI-A}}Sleep Sensing by Clinical or Wearable Devices}{5}}
\@writefile{toc}{\contentsline {subsection}{\numberline {\unhbox \voidb@x \hbox {VI-B}}Unobtrusive Sleep Quality Sensing}{5}}
\@writefile{toc}{\contentsline {section}{\numberline {VII}Summary and Conclusion}{5}}
\bibstyle{abbrv}
\bibdata{HealthMonitor}
\bibcite{_practice_1997}{1}
\bibcite{_electrocardiography_2014}{2}
\bibcite{alqassim_sleep_2012}{3}
\bibcite{ancoli-israel_role_2003}{4}
\bibcite{Atallah:2010uc}{5}
\bibcite{Bourke:2008ed}{6}
\bibcite{Bourke:2007cg}{7}
\bibcite{buysse_pittsburgh_1989}{8}
\bibcite{chen_livenet:_2008}{9}
\bibcite{Chen:2005bp}{10}
\bibcite{cheng_real-time}{11}
\bibcite{choe_opportunities_2010}{12}
\bibcite{Frank:2010uk}{13}
\bibcite{gaddam_determination_2010}{14}
\bibcite{hao_isleep:_2013}{15}
\bibcite{codeblue}{16}
\bibcite{sleepasandroid}{17}
\bibcite{_lifeshirt_????}{18}
\bibcite{alivenet}{19}
\bibcite{bodymedia}{20}
\bibcite{equivital}{21}
\bibcite{fitbit}{22}
\bibcite{zeo}{23}
\bibcite{sleepcycle}{24}
\bibcite{sleeptracker}{25}
\bibcite{kappiarukudil_real-time_2010}{26}
\bibcite{Lan:2009us}{27}
\bibcite{langley_algorithm_2011}{28}
\bibcite{leijdekkers_feasibility_2009}{29}
\bibcite{li_ecg_2008}{30}
\bibcite{Liang:ix}{31}
\bibcite{Lo:2005uv}{32}
\bibcite{Lorincz:2009wm}{33}
\bibcite{MSSE:2005bc}{34}
\bibcite{Mantyjarvi:2005vf}{35}
\bibcite{miwa_development_2009}{36}
\@writefile{lot}{\contentsline {table}{\numberline {I}{\ignorespaces Overview of health sensing by wearable sensors}}{6}}
\newlabel{default}{{I}{6}}
\@writefile{toc}{\contentsline {section}{References}{6}}
\bibcite{Moore:2007ee}{37}
\bibcite{Morris:2002ui}{38}
\bibcite{Anonymous:PIFst6x8}{39}
\bibcite{ondrej_krejcar_use_2011}{40}
\bibcite{Otto:2006vq}{41}
\bibcite{Pantelopoulos:2010be}{42}
\bibcite{Salarian:2004ioa}{43}
\bibcite{Shu:2010ho}{44}
\bibcite{STRATH:2002wa}{45}
\bibcite{sun_pear:_2011}{46}
\bibcite{Tapia:2007jo}{47}
\bibcite{villalba_new_2006}{48}
\bibcite{zulkifli_xbee_2012}{49}
